#-----------------------------------------------------------
# Webtalk v2019.2 (64-bit)
# SW Build 2708876 on Wed Nov  6 21:39:14 MST 2019
# IP Build 2700528 on Thu Nov  7 00:09:20 MST 2019
# Start of session at: Thu Aug 20 17:55:53 2020
# Process ID: 2882823
# Current directory: /data/vga-test/vga-test.sim/sim_1/impl/timing/xsim
# Command line: wbtcv -mode batch -source /data/vga-test/vga-test.sim/sim_1/impl/timing/xsim/xsim.dir/top_time_impl/webtalk/xsim_webtalk.tcl -notrace
# Log file: /data/vga-test/vga-test.sim/sim_1/impl/timing/xsim/webtalk.log
# Journal file: /data/vga-test/vga-test.sim/sim_1/impl/timing/xsim/webtalk.jou
#-----------------------------------------------------------
source /data/vga-test/vga-test.sim/sim_1/impl/timing/xsim/xsim.dir/top_time_impl/webtalk/xsim_webtalk.tcl -notrace
INFO: [Common 17-186] '/data/vga-test/vga-test.sim/sim_1/impl/timing/xsim/xsim.dir/top_time_impl/webtalk/usage_statistics_ext_xsim.xml' has been successfully sent to Xilinx on Thu Aug 20 17:55:57 2020. For additional details about this file, please refer to the WebTalk help file at /home/sahaj/data/Vitis/Vivado/2019.2/doc/webtalk_introduction.html.
INFO: [Common 17-206] Exiting Webtalk at Thu Aug 20 17:55:57 2020...
